<?xml version="1.0" encoding="UTF-8"?>
<!DOCTYPE svg PUBLIC "-//W3C//DTD SVG 1.1//EN" "http://www.w3.org/Graphics/SVG/1.1/DTD/svg11.dtd">
<!-- Creator: CorelDRAW X7 -->
<svg xmlns="http://www.w3.org/2000/svg" xml:space="preserve" width="185.214mm" height="222.3mm" version="1.1" style="shape-rendering:geometricPrecision; text-rendering:geometricPrecision; image-rendering:optimizeQuality; fill-rule:evenodd; clip-rule:evenodd"
viewBox="0 0 10809 12973"
 xmlns:xlink="http://www.w3.org/1999/xlink">
 <defs>
  <style type="text/css">
   <![CDATA[
    .fil1 {fill:#333333}
    .fil0 {fill:#46463A}
    .fil2 {fill:#4D4D4D}
    .fil5 {fill:#666666}
    .fil4 {fill:gray}
    .fil3 {fill:#999999}
    .fil6 {fill:#B3B3B3}
    .fil8 {fill:#CCCCCC}
    .fil7 {fill:#E6E6E6}
   ]]>
  </style>
 </defs>
 <g id="PowerClip_x0020_Contents">
  <metadata id="CorelCorpID_0Corel-Layer"/>
  <g id="_833749444272">
   <path class="fil0" d="M3840 11044l3651 0 284 1097c-936,-493 -2058,-684 -3369,-794l-566 -303z"/>
   <path class="fil1" d="M4406 11347c1096,13 1907,-25 2997,-161l2547 161 0 -11001 -5544 0 -1346 8510 1346 2491z"/>
   <path class="fil2" d="M10809 0l-6456 0c-758,546 -955,1510 -1401,2268 -78,131 -31,-12 -458,63 -48,279 -181,477 -283,537 -183,637 -281,1534 -439,1952 -235,622 -513,2340 -613,2989 -194,1258 -274,1533 -312,2747 399,139 963,308 1429,442l1564 448 566 -99c0,-331 -50,-296 5,-1098 28,-409 124,-893 183,-1391 30,-252 45,-897 79,-1126 84,-570 41,-933 299,-1358 158,-260 369,-641 539,-820 85,-90 363,-288 452,-422 81,-123 302,111 457,146 381,94 718,585 951,1006 223,404 675,812 701,1368 34,700 265,1351 -626,2314 137,126 116,265 -59,365 388,498 437,1378 562,1842 438,186 1343,444 2860,569l0 -12742z"/>
   <path class="fil3" d="M10809 0l-6831 0c-758,546 -1039,1572 -1484,2331 -55,93 -25,424 6,855 2,30 122,-28 248,-198 -95,203 -236,363 -234,400 28,433 47,937 -15,1392 4,-646 -180,-2123 -288,-1912 -282,552 -634,1320 -896,2015 -235,622 -514,2340 -614,2989 -194,1258 -411,1952 -701,2632 399,139 1343,461 1818,557 822,165 1421,227 2022,385 1,-331 88,-699 142,-1501 42,-616 36,-1612 137,-2294 85,-570 305,-1012 563,-1436 158,-260 326,-562 496,-741 208,-218 396,-232 568,-407 18,-17 -187,-752 -229,-881 285,502 348,619 381,524 60,-175 130,-390 204,-591 89,-238 688,-1599 782,-1711 -54,156 -656,1680 -747,1986 -10,36 998,44 1773,-125 -858,286 -1779,151 -1828,362 -70,302 -78,650 -242,847 381,94 840,448 1073,869 223,404 675,812 701,1368 22,456 -95,1635 -168,2251 -10,81 359,94 801,71 31,-2 8,-310 169,-574 -85,287 -23,565 3,563 325,-24 667,-64 915,-110 -782,317 -1934,315 -1947,415 -124,967 -21,1441 104,1905 438,186 1801,612 3318,737l0 -12973z"/>
   <path class="fil4" d="M3616 10660l-114 -16c-55,19 -100,21 -132,2l-386 14 0 316 632 0 0 -316z"/>
   <path class="fil5" d="M8574 11950c408,-8 687,-33 602,406 -74,386 -269,406 -602,406 -332,0 -530,-88 -561,-389 -34,-333 188,-416 561,-423z"/>
   <path class="fil6" d="M8223 12853c-296,25 -612,17 -546,-156 66,-174 122,-194 546,-156 425,37 478,84 547,156 68,72 -250,131 -547,156z"/>
   <path class="fil7" d="M8853 12354c275,24 574,56 618,313 43,257 -54,260 -490,282 -437,22 -533,-60 -491,-282 43,-222 89,-338 363,-313z"/>
   <g>
    <path class="fil8" d="M3370 10646c77,2 -127,167 -274,258 154,-50 370,-259 406,-260 553,-14 828,-209 716,372 -106,552 -384,579 -859,579 -474,0 -812,-53 -974,-454 -263,-651 300,-513 985,-495z"/>
    <path class="fil4" d="M2294 10983c283,25 592,58 637,323 46,265 -55,269 -506,292 -451,22 -549,-63 -506,-292 44,-229 91,-349 375,-323z"/>
    <path class="fil6" d="M3375 11763c-380,32 -785,23 -700,-200 85,-223 156,-248 700,-200 544,48 612,108 700,200 87,92 -321,168 -700,200z"/>
   </g>
  </g>
 </g>
</svg>
