<?xml version="1.0" encoding="UTF-8"?>
<!DOCTYPE svg PUBLIC "-//W3C//DTD SVG 1.1//EN" "http://www.w3.org/Graphics/SVG/1.1/DTD/svg11.dtd">
<!-- Creator: CorelDRAW X7 -->
<svg xmlns="http://www.w3.org/2000/svg" xml:space="preserve" width="644.031mm" height="155.722mm" version="1.1" style="shape-rendering:geometricPrecision; text-rendering:geometricPrecision; image-rendering:optimizeQuality; fill-rule:evenodd; clip-rule:evenodd"
viewBox="0 0 257583 62282"
 xmlns:xlink="http://www.w3.org/1999/xlink">
 <defs>
  <style type="text/css">
   <![CDATA[
    .str0 {stroke:#633110;stroke-width:79.9909}
    .fil3 {fill:none}
    .fil1 {fill:#0091FF}
    .fil4 {fill:#78533A}
    .fil2 {fill:#B07F5A}
    .fil0 {fill:#F7F2D3}
    .fil5 {fill:url(#id1)}
    .fil6 {fill:url(#id2)}
   ]]>
  </style>
   <clipPath id="id0">
    <path d="M97068 57674c14241,-6317 32147,-9150 45282,141l-1926 -13998c-8096,-5565 -21797,-6733 -33623,-102l-9733 13959z"/>
   </clipPath>
  <linearGradient id="id1" gradientUnits="userSpaceOnUse" x1="125419" y1="4963.56" x2="125467" y2="9059.09">
   <stop offset="0" style="stop-opacity:1; stop-color:#87C987"/>
   <stop offset="1" style="stop-opacity:1; stop-color:#9CE29C"/>
  </linearGradient>
  <linearGradient id="id2" gradientUnits="userSpaceOnUse" x1="181132" y1="167.821" x2="181132" y2="8221.11">
   <stop offset="0" style="stop-opacity:1; stop-color:#64BA64"/>
   <stop offset="1" style="stop-opacity:1; stop-color:#9CE29C"/>
  </linearGradient>
 </defs>
 <g id="PowerClip_x0020_Contents">
  <metadata id="CorelCorpID_0Corel-Layer"/>
  <path class="fil0" d="M0 43201c30621,-418 82253,340 113011,566l-15943 13907c-25576,-165 -72138,-347 -97068,-111l0 -14362zm140424 616c10556,-151 22742,-517 33307,-643 13181,-157 70634,461 83852,589l0 14282c-14184,-51 -72530,-612 -86394,-478 -11126,107 -17720,215 -28839,248l-1926 -13998z"/>
  <path class="fil1" d="M148651 18826c2896,-4463 5042,-9086 3121,-11784 -669,-940 -129,-1587 1175,-1839l3 0c372,-176 743,-349 1114,-515l2 -1c-5358,322 -4554,1517 -4350,2955 510,3600 -3371,6234 -6827,9518 -6544,6217 -15755,10613 -22348,18770 -7802,9652 -11870,17361 -20554,26352l36158 0c-52,-7593 -1316,-13436 772,-23993 1025,-5180 8881,-15067 11734,-19463z"/>
  <path class="fil2" d="M97068 57674c14241,-6317 32147,-9150 45282,141l-1926 -13998c-8096,-5565 -21797,-6733 -33623,-102l-9733 13959z"/>
  <g style="clip-path:url(#id0)">
   <g id="_834019117760">
    <path id="1" class="fil3 str0" d="M100709 56384c765,-1187 1535,-2377 2305,-3570 770,-1192 1546,-2388 2318,-3581 772,-1192 1537,-2389 2305,-3581 767,-1193 1553,-2391 2323,-3584"/>
    <path class="fil3 str0" d="M104101 55317c706,-1189 1418,-2383 2128,-3576 712,-1196 1419,-2393 2133,-3589 712,-1193 1425,-2392 2137,-3588 710,-1193 1426,-2395 2137,-3591"/>
    <path class="fil3 str0" d="M107284 54445c638,-1179 1282,-2366 1920,-3549 639,-1187 1288,-2371 1933,-3556 645,-1183 1286,-2377 1929,-3560 643,-1183 1286,-2374 1934,-3559"/>
    <path class="fil3 str0" d="M110295 53743c571,-1166 1143,-2335 1716,-3506 573,-1170 1152,-2342 1726,-3514 571,-1168 1148,-2341 1720,-3512 573,-1173 1146,-2344 1725,-3516"/>
    <path class="fil3 str0" d="M113157 53198c494,-1151 1002,-2304 1508,-3459 504,-1153 1013,-2311 1521,-3468 506,-1152 1013,-2311 1517,-3465 505,-1156 1010,-2315 1522,-3470"/>
    <path class="fil3 str0" d="M115906 52792c434,-1133 873,-2272 1313,-3412 439,-1138 880,-2281 1322,-3421 441,-1137 880,-2277 1318,-3417 436,-1137 883,-2280 1322,-3420"/>
    <path class="fil3 str0" d="M118577 52532c367,-1121 748,-2243 1119,-3366 371,-1127 747,-2253 1123,-3376 375,-1124 753,-2250 1127,-3374 373,-1123 747,-2251 1123,-3378"/>
    <path class="fil3 str0" d="M121185 52407c308,-1108 621,-2221 933,-3333 313,-1112 629,-2225 942,-3340 312,-1111 620,-2225 933,-3337 312,-1112 620,-2228 937,-3344"/>
    <path class="fil3 str0" d="M123721 52415c249,-1099 503,-2205 756,-3309 254,-1104 509,-2208 761,-3314 251,-1102 498,-2208 752,-3313 253,-1103 507,-2210 756,-3318"/>
    <path class="fil3 str0" d="M126261 52562c186,-1095 378,-2196 571,-3296 192,-1098 398,-2197 589,-3297 190,-1099 380,-2199 575,-3298 194,-1099 385,-2200 579,-3303"/>
    <path class="fil3 str0" d="M128779 52857c131,-1094 263,-2193 399,-3292 135,-1098 276,-2197 412,-3296 135,-1095 269,-2196 407,-3294 138,-1098 267,-2200 403,-3301"/>
    <path class="fil3 str0" d="M131337 53324c73,-1098 145,-2201 222,-3302 77,-1101 159,-2202 236,-3303 77,-1099 154,-2202 231,-3303 77,-1101 154,-2204 235,-3309"/>
    <path class="fil3 str0" d="M133923 53984c14,-1107 34,-2215 54,-3324 21,-1108 46,-2217 64,-3325 18,-1105 34,-2215 54,-3324 20,-1107 45,-2219 59,-3331"/>
    <path class="fil3 str0" d="M136590 54878c-41,-1120 -86,-2241 -122,-3361 -36,-1120 -75,-2241 -113,-3361 -39,-1120 -77,-2239 -118,-3361 -41,-1122 -77,-2243 -118,-3370"/>
    <path class="fil3 str0" d="M139379 56078c-104,-1138 -199,-2273 -298,-3410 -100,-1138 -199,-2274 -299,-3411 -100,-1133 -199,-2273 -299,-3409 -100,-1137 -195,-2275 -299,-3419"/>
   </g>
  </g>
  <path class="fil3" d="M97068 57674c14241,-6317 32147,-9150 45282,141l-1926 -13998c-8096,-5565 -21797,-6733 -33623,-102l-9733 13959z"/>
  <path class="fil3" d="M97068 57674c14519,-8451 32433,-11343 45282,141"/>
  <path class="fil4" d="M97068 57674c7713,-4444 16374,-7465 24774,-7439 7349,23 14494,2259 20508,7580l-4115 -13c-4957,-3480 -10571,-4979 -16354,-4997 -6549,-20 -13326,1847 -19635,4885l-5178 -16z"/>
  <path class="fil5" d="M154327 4571l2 1c713,-315 1426,-612 2138,-890 -5311,-1253 -10712,-2129 -15956,-1981 -20387,576 -19380,3750 -46093,10631 50760,224 40126,-6161 59909,-7761z"/>
  <path class="fil6" d="M151835 5746c16296,-8190 32541,-6311 48090,-2444 4663,1160 8036,1910 10505,2444 -10203,1210 -42321,5288 -58595,0z"/>
 </g>
</svg>
