<?xml version="1.0" encoding="UTF-8"?>
<!DOCTYPE svg PUBLIC "-//W3C//DTD SVG 1.1//EN" "http://www.w3.org/Graphics/SVG/1.1/DTD/svg11.dtd">
<!-- Creator: CorelDRAW X7 -->
<svg xmlns="http://www.w3.org/2000/svg" xml:space="preserve" width="96.068mm" height="61.8917mm" version="1.1" style="shape-rendering:geometricPrecision; text-rendering:geometricPrecision; image-rendering:optimizeQuality; fill-rule:evenodd; clip-rule:evenodd"
viewBox="0 0 48586 31301"
 xmlns:xlink="http://www.w3.org/1999/xlink">
 <defs>
  <style type="text/css">
   <![CDATA[
    .fil0 {fill:gray}
    .fil1 {fill:#999999}
    .fil2 {fill:#B3B3B3}
   ]]>
  </style>
 </defs>
 <g id="PowerClip_x0020_Contents">
  <metadata id="CorelCorpID_0Corel-Layer"/>
  <g id="_833726056288">
   <path class="fil0" d="M27679 100c13790,-250 23256,-1109 20396,13750 -2521,13093 -9132,13750 -20396,13750 -11264,0 -17982,-2978 -19020,-13177 -1146,-11261 6381,-14094 19020,-14323z"/>
   <path class="fil1" d="M7560 15527c5579,507 11658,1144 12550,6367 892,5224 -1080,5302 -9963,5743 -8883,441 -10820,-1226 -9963,-5743 858,-4516 1797,-6873 7376,-6367z"/>
   <path class="fil2" d="M24373 31063c-6690,563 -13834,398 -12338,-3525 1495,-3923 2746,-4380 12338,-3525 9591,854 10789,1899 12338,3525 1549,1626 -5649,2962 -12338,3525z"/>
  </g>
 </g>
</svg>
